{"hash":"63e45bfe1ee672f90de8e53ff971b59190058c82","data":{"brands":{"totalCount":230,"pageInfo":{"totalPages":3,"currentPage":1},"edges":[{"node":{"id":"b2c28a98b2322e568d22d48b08f261b3","title":"آسیاتک","colors":["fecc00","009fe3","e30613"],"path":"/brands/asiatech/"}},{"node":{"id":"3d43834739ef5b67246934dd029ed17d","title":"آلبورا","colors":["ffd655","6a86d8","ff0200","000000","00c47a","fe8836"],"path":"/brands/albura/"}},{"node":{"id":"bba2c767abd142156fa7d213b14d0099","title":"آمازون","colors":["ff9900","146eb4"],"path":"/brands/amazon/"}},{"node":{"id":"1a10ff67de82aa47597b39c8fd526f7c","title":"آندره","colors":["da241a","00448e","ffef11"],"path":"/brands/andre/"}},{"node":{"id":"c8d431c5e6e4c1b379104c098f2da5aa","title":"آواتک","colors":["90c646","ffa800","45b2cb"],"path":"/brands/avatech/"}},{"node":{"id":"b8f1dc54bd71653283a0eafafd5c381f","title":"آوازه","colors":["e41d24","fedf00"],"path":"/brands/avazeh/"}},{"node":{"id":"54ee4ba84d5ea9512c22f770b3983417","title":"آپادانا","colors":["f8c301","da251c","4cb034","007cc2","dd127b"],"path":"/brands/apadana/"}},{"node":{"id":"4edf2138f197da2e6ce8e131c2068214","title":"آپارات","colors":["ed145b","231f20"],"path":"/brands/aparat/"}},{"node":{"id":"8227289d24a549353f269048fcd9f5c3","title":"آیدین","colors":["ff0028","d0ab50"],"path":"/brands/aidin/"}},{"node":{"id":"6777b198739724ab9a54e0fe2831646e","title":"آی‌او‌اس","colors":["5fc9f8","fecb2e","fd9426","fc3158","147efb","53d769","fc3d39","8e8e93"],"path":"/brands/ios/"}},{"node":{"id":"ee5890864f43ff46abadcc93de4bdbb5","title":"ابر آروان","colors":["20c5ba","0b3a42","f9b91b"],"path":"/brands/arvan-cloud/"}},{"node":{"id":"1e8e744c2c8cef1805a18b95c52bea57","title":"اتباکس","colors":["310cec","5720d0","7e35b4","a2489a","cb5e7c"],"path":"/brands/atbox/"}},{"node":{"id":"3345bcf2957f4dea7ac850863e4cd129","title":"اخوان","colors":["ed1e26"],"path":"/brands/akhavan/"}},{"node":{"id":"13772fdb01a352e43851fce584ebeae1","title":"ادوبی","colors":["ff0000","fbb034","ffdd00","c1d82f","00a4e4","8a7967","6a737b"],"path":"/brands/adobe/"}},{"node":{"id":"6505b5f972a35b414a9655ac6f62db99","title":"استیل البرز","colors":["d71921"],"path":"/brands/steel-alborz/"}},{"node":{"id":"6880e6559d2bf1236b69252465993c00","title":"اسنوا","colors":["1f519d","0383c7","039f44","7ab935"],"path":"/brands/snowa/"}},{"node":{"id":"f918bfece1690fb4f0d74320e8f73c65","title":"اسنپ!","colors":["00d170","58c0f9","008efa","3939e6","7e33cc","f23da7","d9004f","ff4340","ffbb00"],"path":"/brands/snapp/"}},{"node":{"id":"9e32ba5fc9d158855468aeee504a185c","title":"اسنپ‌فود!","colors":["ff00a4","ec0c6d","D9004F"],"path":"/brands/snappfood/"}},{"node":{"id":"b3398f07c0208fbefbdbb09997673400","title":"اسپاتیفای","colors":["1db954","191414"],"path":"/brands/spotify/"}},{"node":{"id":"f60357d8ff3c106705814280ba22907b","title":"افق کوروش","colors":["d71921"],"path":"/brands/ofoghkourosh/"}},{"node":{"id":"9ddd3220ce3d84f1075d5a363444d958","title":"الکامپ","colors":["9b1c53"],"path":"/brands/elecomp/"}},{"node":{"id":"cdba274853a3f3c4a2c37c3537bd615b","title":"الیت","colors":["ffc50c","e91b23"],"path":"/brands/elite/"}},{"node":{"id":"95926cf756c70b7a2f1bfbed2f90000b","title":"ال‌جی","colors":["72797f","aa0146"],"path":"/brands/lg/"}},{"node":{"id":"a91bfffa5f087af7faf53da8c3ef8b6b","title":"ام‌تی‌ان ایرانسل","colors":["febe10","00688f","e21826"],"path":"/brands/mtn-irancell/"}},{"node":{"id":"397c441051b814fb85b7eae90c72815e","title":"اندروید","colors":["a4c639"],"path":"/brands/android/"}},{"node":{"id":"7bda7f9f2bafdf0aaf8d150cdc327c77","title":"اوبونتو","colors":["dd4814","77216f","5e2750","2c001e","aea79f","333333"],"path":"/brands/ubuntu/"}},{"node":{"id":"683c583785942c5853cc45ea02cdd913","title":"اوپرا","colors":["cc0f16","9c9e9f"],"path":"/brands/opera/"}},{"node":{"id":"e6570c3f3eb7493cb39ffebd60b43f50","title":"اوپن سوزه","colors":["2b2e2c","00662b"],"path":"/brands/opensuse/"}},{"node":{"id":"be76b491a4afb6fc9bb59b767f6828ae","title":"اچ‌پی","colors":["0096d6","d7410b"],"path":"/brands/hp/"}},{"node":{"id":"7d4f263fecbeb41cae03b96759631ab9","title":"اکتیو","colors":["26348d","e50619","ffe600"],"path":"/brands/active/"}},{"node":{"id":"ae8a7714bc8a006434677d8b03c68f7c","title":"ایران‌اپس","colors":["ff0000","70c231","ffb600","3b6df8"],"path":"/brands/iranapps/"}},{"node":{"id":"5499e814d2b3e6e9325ff6f2a1e33d58","title":"ایستک","colors":["095112","d0ab5b"],"path":"/brands/istak/"}},{"node":{"id":"46b5c5bcde241fda68bd444af836ae89","title":"ایسوس","colors":["22448f"],"path":"/brands/asus/"}},{"node":{"id":"1342590bd765bcfeb99cfdb9f0378e0e","title":"ایمالز","colors":["3f71a5","e72428","f89a24"],"path":"/brands/emalls/"}},{"node":{"id":"e1de50fdff262cfeb1bc906bd6e66216","title":"اینستاگرام","colors":["405de6","5851db","833ab4","c13584","e1306c","fd1d1d","f56040","f77737","fcaf45","ffdc80"],"path":"/brands/instagram/"}},{"node":{"id":"c1293faedaa545d3165a51043e8c2fd8","title":"ایوند","colors":["27a8e7"],"path":"/brands/evand/"}},{"node":{"id":"72a38e5e4a24d6952b0752cbfd91a734","title":"ایکس ویژن","colors":["00358c","e50000"],"path":"/brands/xvision/"}},{"node":{"id":"7a16ee175c9a1cf68fea5aa0132278f0","title":"ایکس‌‌باکس","colors":["52b043"],"path":"/brands/xbox/"}},{"node":{"id":"2b82c325cbe808c5316bd851545f0231","title":"ب ام و","colors":["f5f6fc","2e9bda","2d9cdb","8ca3b1","111010"],"path":"/brands/bmw/"}},{"node":{"id":"8e88ab8fb44c2409f75934ae1b6e87d7","title":"بامیلو","colors":["f68b1e","6e6e6e"],"path":"/brands/bamilo/"}},{"node":{"id":"7193d0acc953aac30d451265b664d464","title":"بانک آینده","colors":["572600","b38807"],"path":"/brands/bank-ayandeh/"}},{"node":{"id":"4e25004bbbbfdfdfedbfaab37850274c","title":"بانک اقتصاد نوین","colors":["97199a","c60610"],"path":"/brands/bank-en/"}},{"node":{"id":"add5c47465aa5be4d4fc61e145818d7d","title":"بانک انصار","colors":["bd0025","f9b400"],"path":"/brands/bank-ansar/"}},{"node":{"id":"dbdb6a4d5a2a4d5d203ce23e24601d1f","title":"بانک تجارت‌","colors":["2F4A98"],"path":"/brands/bank-tejarat/"}},{"node":{"id":"4a0e7086cc450b731456a32a156abe42","title":"بانک دی","colors":["00899c","4d4d4d"],"path":"/brands/bank-dey/"}},{"node":{"id":"51d3f1f7f60216d19f6b8b19bff4bee9","title":"بانک رسالت","colors":["00bce4"],"path":"/brands/bank-resalat/"}},{"node":{"id":"159236dbaccc70677c104bbe771df80d","title":"بانک سامان","colors":["7cd0f4","00a8e7","0070b9"],"path":"/brands/bank-saman/"}},{"node":{"id":"92d70d48d7924ea3f767c92f1c88d156","title":"بانک مسکن","colors":["B17D57"],"path":"/brands/bank-maskan/"}},{"node":{"id":"e6bda2b2aaaeb46dbec429be0c0069de","title":"بانک ملت","colors":["FDBD51","D81736"],"path":"/brands/bank-mellat/"}},{"node":{"id":"cfeb9acb62056483c2e07a48ac20083c","title":"بانک پارسیان","colors":["B17D57","000000"],"path":"/brands/bank-parsian/"}},{"node":{"id":"db5b6957ec6882e76233c027c2d97e63","title":"بانک پاسارگاد","colors":["FFC41E","555555"],"path":"/brands/bank-pasargad/"}},{"node":{"id":"ccc046d2ca107f54ca2ed89bc289af64","title":"بانک کارآفرین","colors":["d4af64","2f7747"],"path":"/brands/bank-karafarin/"}},{"node":{"id":"120a5209c5d6fe2ac1e5a4ea183f36e6","title":"بلاگفا","colors":["0f3971","89bcff"],"path":"/brands/blogfa/"}},{"node":{"id":"acfe58eca825005a1990ac1b8d7d9a8c","title":"بلک‌بری","colors":["005387","8cb811","fdb813","88aca1","000000","788cb6","a1a1a4","8f8f8c"],"path":"/brands/blackberry/"}},{"node":{"id":"386ba23e6f83b7703140492d1aa36a4d","title":"بن‌مانو","colors":["00a885"],"path":"/brands/bonmano/"}},{"node":{"id":"f6dcda4a9638f026b405cefab8324867","title":"بوتان","colors":["ce000c","000000"],"path":"/brands/butane/"}},{"node":{"id":"321308ebaef42bd2276d31f905899594","title":"بوش","colors":["ec1b24"],"path":"/brands/bosch/"}},{"node":{"id":"ee03437f4429ca5dfe865a4c06a4882a","title":"بیسفون","colors":["e72a37","ffdd52"],"path":"/brands/bisphone/"}},{"node":{"id":"b2beff60add9f77b31795c6d935948de","title":"بیسکویت مادر","colors":["d3d67b","e21f25"],"path":"/brands/biscuit-madar/"}},{"node":{"id":"dde0ee70565f1a7c27d12c49f892abf1","title":"بیمکث","colors":["21252b","ff4208"],"path":"/brands/bimax/"}},{"node":{"id":"4cb2a43f00154ca105ecb04a02ef2341","title":"بینگ","colors":["ffb900","505050","a3a3a3"],"path":"/brands/bing/"}},{"node":{"id":"508c0abf7f528524ac45561877bd8b6c","title":"بیهنس","colors":["1769ff"],"path":"/brands/behance/"}},{"node":{"id":"d47200da14aac465fec00b6299f1e3f0","title":"تامبلر","colors":["35465c"],"path":"/brands/tumblr/"}},{"node":{"id":"d48cee7a5b899045a379bbdcd4d7ca8c","title":"تحفه","colors":["f57e18","00aeef","353894","2ca751"],"path":"/brands/tohfe/"}},{"node":{"id":"277366ce8e19862a2410acf2dc79af42","title":"تخفیفان","colors":["e54e63","5a595c"],"path":"/brands/takhfifan/"}},{"node":{"id":"0c6d8252041171f2f959a9b294dac128","title":"تسکولو","colors":["20c4f7"],"path":"/brands/taskulu/"}},{"node":{"id":"51ae9deea43000928807c3abc0ea44e6","title":"تلوبیون","colors":["d02026"],"path":"/brands/telewebion/"}},{"node":{"id":"d6fd2cc652deb9eee9bf4c8c59d0a993","title":"تلگرام","colors":["0088cc"],"path":"/brands/telegram/"}},{"node":{"id":"caa7f89b725e4f9bfc15471a5b38f4a0","title":"توئیتر","colors":["55acee"],"path":"/brands/twitter/"}},{"node":{"id":"06cd20b8959f3d91cec93654d10c2c80","title":"توس چینی","colors":["fdc104","250000"],"path":"/brands/chini-toos/"}},{"node":{"id":"8571161098c14a5aada4c0b1402606cb","title":"تپسی","colors":["ff5722","0065dc","000000"],"path":"/brands/tapsi/"}},{"node":{"id":"db334e1230abedfe6cd9a8d45ae51bf2","title":"تک ماکارون","colors":["0d5122","ded81c"],"path":"/brands/takmakaron/"}},{"node":{"id":"87f5d8c6f2099c4bba7e12aa7033a274","title":"تکدانه","colors":["f31828","ffc927"],"path":"/brands/takdane/"}},{"node":{"id":"d60c6755af866b438fbb3ecf00362b23","title":"تکنامه","colors":["80197e","ff5400"],"path":"/brands/technameh/"}},{"node":{"id":"aab1fa62d5bb535b1dc192897d54b334","title":"جانبو","colors":["e31418"],"path":"/brands/canbo/"}},{"node":{"id":"c68a709a4668d4d4e4bf1c598fe34a25","title":"جیبرس","colors":["c80a5a"],"path":"/brands/jibres/"}},{"node":{"id":"6f9506f8632ed327ffc8b080d07e8394","title":"جی‌ال‌ایکس","colors":["ff0000","1e00ff"],"path":"/brands/glx/"}},{"node":{"id":"b37dce131213f3ac73894275fc8b3b74","title":"خوشخواب","colors":["f9de20","f05858"],"path":"/brands/khoshkhab/"}},{"node":{"id":"757a46f6d6bfc9c3bc6aa84c566a02c0","title":"دانشگاه آزاد اسلامی","colors":["7f9cec","3f69e1"],"path":"/brands/islamic-azad-uni/"}},{"node":{"id":"a6c719f0416e7ec35204d17941dc7043","title":"دایتی","colors":["84d0f5","00b1eb","0077ba","0e3d8a"],"path":"/brands/dayti/"}},{"node":{"id":"081c8bb4c5f5d19cb2bb1b3ad544081a","title":"دراپ‌باکس","colors":["007ee5","7b8994","47525d","3d464d"],"path":"/brands/dropbox/"}},{"node":{"id":"0fa320435baac1680294c2ebac8f3235","title":"دریبل","colors":["444444","ea4c89","8aba56","ff8833","00b6e3","9ba5a8"],"path":"/brands/dribble/"}},{"node":{"id":"c5db317fbc3460846ce7616c60a7ec68","title":"دل","colors":["0085c3","7ab800","f2af00","dc5034","ce1126","b7295a","6e2585","71c6c1","5482ab","009bbb","444444","eeeeee"],"path":"/brands/dell/"}},{"node":{"id":"eee9f5aa1b9f235cb82ba1b541b8811c","title":"دلپذیر","colors":["dd282e","178d4d"],"path":"/brands/delpazir/"}},{"node":{"id":"ce47dc6be1d9892d82eeaa769ad79c74","title":"دماوند","colors":["1f4874","018cc5","d80228","1aa000"],"path":"/brands/damavand/"}},{"node":{"id":"b046e6cd0727953e0de4dced8e9adfaf","title":"دومینو","colors":["5cc7f1","01509f","dd0010"],"path":"/brands/domino/"}},{"node":{"id":"3e6633c4a529eb31ed869c4e75094116","title":"دونیت","colors":["0f639c","a7cd00"],"path":"/brands/2nate/"}},{"node":{"id":"cc55eba724d3427248574b97fbce0939","title":"دیجیکالا","colors":["ef3f3e","818285"],"path":"/brands/digikala/"}},{"node":{"id":"bb269441d97a1e717ad89881b6db37fb","title":"دیمو","colors":["dd0200"],"path":"/brands/dimo/"}},{"node":{"id":"f219db274b7686a3f7e3001f83c71e20","title":"دیموند","colors":["00aabb","024e90","252e7b","49af1f","f6e600","f8cc00","f50000","a20000"],"path":"/brands/dmond/"}},{"node":{"id":"d2ee0afe54c25dfc7f6f859a2656aa7a","title":"دیوار","colors":["c42127","595a5c"],"path":"/brands/divar/"}},{"node":{"id":"a542dec230f55d55b7da3290a670bd96","title":"رایتل","colors":["941063","c4d94b"],"path":"/brands/rightel/"}},{"node":{"id":"878f3fe6d228cde6defd36b97ad97488","title":"رفاه","colors":["009238","ec6608"],"path":"/brands/refah/"}},{"node":{"id":"7aa64136f9dc487618050ff01896546c","title":"رولان","colors":["e3000f","ffec01"],"path":"/brands/rolan/"}},{"node":{"id":"f1029698f6e61b034a393e4492ac6562","title":"زر ماکارون","colors":["003365","e2c271","ed1c24"],"path":"/brands/zarmacaron/"}},{"node":{"id":"202b5634f00a04900135e87250630926","title":"زمزم","colors":["ce181e"],"path":"/brands/zamzam/"}},{"node":{"id":"ee7c1cdea0ad806a79cf5f209c3803ad","title":"زومیت","colors":["eb1f28","000000"],"path":"/brands/zoomit/"}},{"node":{"id":"763768074357598bffa8c806c4a356b1","title":"زیتل","colors":["222323","1198d2","10b4da","07d8ec","00fbfe"],"path":"/brands/zitel/"}},{"node":{"id":"c881d6205ef16565ba47d1551d775994","title":"سازیتو","colors":["f6c54f","ed488a","606cec","32335e"],"path":"/brands/sazito/"}},{"node":{"id":"b8380cbcb866d05fee11516ff7a50593","title":"سافتلن","colors":["9b1377","deae6c"],"path":"/brands/softlan/"}}]}},"context":{}}