{"hash":"63e45bfe1ee672f90de8e53ff971b59190058c82","data":{"brands":{"totalCount":230,"pageInfo":{"totalPages":3,"currentPage":2},"edges":[{"node":{"id":"8a64c2c6ace3e6cad42e1aad3267d49c","title":"سامسونگ","colors":["1428a0","75787b","0689d8","ffc600","ff6900","e4002b","c800a1","685bc7","0057b8","00a9e0","009ca6","00b140"],"path":"/brands/samsung/"}},{"node":{"id":"f2d23bdaaee64667fa63ea8516e06553","title":"سایپا","colors":["FF5B00"],"path":"/brands/saipa/"}},{"node":{"id":"b6a552d7ef89f456f1a7a8f827a05213","title":"ستاک","colors":["0d9f56","8dda3f"],"path":"/brands/setak/"}},{"node":{"id":"89171512b7eb55684bb3fb2f697618e6","title":"سروش","colors":["aa3063"],"path":"/brands/soroush/"}},{"node":{"id":"34a64e4f56ab616376f27ebf0f26c93a","title":"سفرهای علی‌بابا","colors":["ffaa0f","ffffff","000000"],"path":"/brands/alibaba-aero/"}},{"node":{"id":"d48555b3d615bca72e84f5aa6ee480a0","title":"سلام دنیا!","colors":["ffca08"],"path":"/brands/salam-donya/"}},{"node":{"id":"42035003f9bd946ab55e0a7f0b96bad6","title":"سن‌ایچ","colors":["f15922","ffc82d"],"path":"/brands/sunich/"}},{"node":{"id":"352f1d07b7c995037dd32f4f5efec3a5","title":"سه‌نان","colors":["ec8529"],"path":"/brands/cenan/"}},{"node":{"id":"526bd7b655bef3588b506e676bc8bc83","title":"سونی","colors":["000000"],"path":"/brands/sony/"}},{"node":{"id":"ee907240f510f0c4572ccdbdfe170f78","title":"سینره","colors":["dca515"],"path":"/brands/cinere/"}},{"node":{"id":"ab06f279e1c521c2d2bd5cc81c6f3e98","title":"شاتل","colors":["002a63","f26322"],"path":"/brands/shatel/"}},{"node":{"id":"4dfd9567c8f9bda87f25e9d033468f4c","title":"شام شام","colors":["e10e18","f4a411"],"path":"/brands/sham-sham/"}},{"node":{"id":"aa7ebbcf7f77748374070fee098f5cca","title":"شهروند","colors":["b00937","e30468","39c0c3","036a3f"],"path":"/brands/shahrvand/"}},{"node":{"id":"c99fa0176c07d810c11a869a2d62e626","title":"شیاومی","colors":["ff4a00"],"path":"/brands/xiaomi/"}},{"node":{"id":"f30343541d7bc9757547cd98b697185e","title":"شیلا","colors":["ff5c00"],"path":"/brands/shila/"}},{"node":{"id":"f4e385e40d59390d30c08957c52fa8fe","title":"شیپور","colors":["0077c0","02abec","8dc641","fa9416"],"path":"/brands/sheypoor/"}},{"node":{"id":"d9b29e96b09d936fba5fd15c1a3753c6","title":"صبانت","colors":["da1f26"],"path":"/brands/sabanet/"}},{"node":{"id":"c064ba6960b5db09da358608ab441255","title":"صحت","colors":["006509"],"path":"/brands/sehat/"}},{"node":{"id":"192a947dc54860d73439a2569929529f","title":"طاقچه","colors":["00a2a4"],"path":"/brands/taaghche/"}},{"node":{"id":"447e189c15ae8590538813e6eb5b8be8","title":"طرفداری","colors":["2c3136","ff9b00","27bcc9"],"path":"/brands/tarafdari/"}},{"node":{"id":"55150d2eb1a5ed01d2811933ffb3ae03","title":"عالیس","colors":["076633","96c11f","53bb96","0e71b8"],"path":"/brands/alis/"}},{"node":{"id":"1d65cb83d0631ee216b95e3c3555d60b","title":"عطاویچ","colors":["c52f33"],"path":"/brands/atawich/"}},{"node":{"id":"c0a1027406ee397c41f976a260681858","title":"فارسی‌۱","colors":["00aeb0"],"path":"/brands/farsi1/"}},{"node":{"id":"9a9f14aab5fc937439304da03721249d","title":"فایرفاکس","colors":["e66000","ff9500","ffcb00","00539f","0095dd","331e54","002147"],"path":"/brands/firefox/"}},{"node":{"id":"e6f291ceadc08a9535ee1ca76ff04dab","title":"فراری","colors":["e32119"],"path":"/brands/ferrari/"}},{"node":{"id":"859c390f3c0b8f002b2d4c396c6d4104","title":"فراسو","colors":["00a6d6"],"path":"/brands/farassoo/"}},{"node":{"id":"fa3f6d367f2ea751f5378a964f7e044e","title":"فرانش","colors":["004667","239ED8"],"path":"/brands/faranesh/"}},{"node":{"id":"2e3c10c6d3fd41957a523033c44fd6a0","title":"فرش فرهی","colors":["ffcb05","01a99c"],"path":"/brands/farsh-farrahi/"}},{"node":{"id":"08f8a8a1e38f623f84729214ed74eb74","title":"فرمالو","colors":["F95C30","0065DC"],"path":"/brands/formaloo/"}},{"node":{"id":"4f6efa8fa8717cd7797b45dc1c9a3a8c","title":"فلربو","colors":["fedd43","e5aa61","fa7496"],"path":"/brands/flerbo/"}},{"node":{"id":"fd2f9aebe671eb9af07a8fa5d18825d7","title":"فلیکر","colors":["0063dc","6ecdec"],"path":"/brands/flicker/"}},{"node":{"id":"0b0f8f5936c8bd912746205aa6b98a32","title":"فناپ","colors":["ee7f06"],"path":"/brands/fanap/"}},{"node":{"id":"c1f65aeb4ae5c3dd7470149037adc134","title":"فولکس‌واگن","colors":["0057a7","aebac0"],"path":"/brands/volkswagen/"}},{"node":{"id":"83a8e075728a7ae37b15c7e278ed6d39","title":"فیدیبو","colors":["28c5cc"],"path":"/brands/fidibo/"}},{"node":{"id":"876397ac1581f028fa6afaaf1d334804","title":"فیروز","colors":["0062ab","6ecdec"],"path":"/brands/firooz/"}},{"node":{"id":"c12e95ef2731a49e977300adf6b1b8c1","title":"فیسبوک‌","colors":["3b5998"],"path":"/brands/facebook/"}},{"node":{"id":"63a6668b50c982bd7c8f19f247808ed4","title":"فیس‌نما","colors":["287eb7","3e9ede"],"path":"/brands/facenama/"}},{"node":{"id":"6e4396830550ff9a551c3b4bc99e5301","title":"فیلیمو","colors":["f9ad03"],"path":"/brands/filimo/"}},{"node":{"id":"c3d7b197629bcad333cf9dc6dddaccd3","title":"قصر شیرین","colors":["eb5201"],"path":"/brands/ghasre-shirin/"}},{"node":{"id":"2398eb92a6392303bcb9e4864fcef133","title":"لحظه نگار","colors":["ec748c","df254d","bd162d","a31916","6c160c"],"path":"/brands/lahzenegar/"}},{"node":{"id":"e97d717d503db5b1269be069fe74dbc7","title":"لنزور","colors":["f1592a","f7941e","fcb040","d7df21","0b9444","0e76bc","9f1f63"],"path":"/brands/lenzor/"}},{"node":{"id":"12e79ad1739961f34d48e7207cce7664","title":"لورئال","colors":["000000"],"path":"/brands/loreal/"}},{"node":{"id":"5ddf84a3abfe76e6f903a3ca4b470900","title":"لینوکس مینت","colors":["7dbe3b","87cf3e","bfff80"],"path":"/brands/linux-mint/"}},{"node":{"id":"f40207de21e36cfab7c7555d060c2912","title":"لینکداین","colors":["0077b5","000000","313335","86888a","caccce","00a0dc","8d6cab","dd5143","e68523"],"path":"/brands/linkedin/"}},{"node":{"id":"ce8bd3445931dc68f2ef729ace136f3e","title":"مادیران","colors":["0c4da2","ed1a3b"],"path":"/brands/madiran/"}},{"node":{"id":"4597bc8218cf5f101b0f0bbf15148e5f","title":"ماکارونی مانا","colors":["0b3177","ec1c24"],"path":"/brands/manamacaron/"}},{"node":{"id":"a2f8f2df3b2788dd8d888cc3b4a2588b","title":"ماکسیم","colors":["eb190e","000000"],"path":"/brands/maxim/"}},{"node":{"id":"190b5df8bb70b975fd392727ab2abab2","title":"مای","colors":["cd5c5c"],"path":"/brands/my/"}},{"node":{"id":"776296e3e5c25e8796571f1519930c0d","title":"مای بی‌بی","colors":["f1020f","008fd7","6cd400","e30074","f8f400"],"path":"/brands/mybaby/"}},{"node":{"id":"4db9d6933ace9d9730576b82e0812109","title":"مایکت","colors":["00b0ff","ff0083"],"path":"/brands/myket/"}},{"node":{"id":"c95cf47fcec966901858a4620f83b423","title":"مایکروسافت","colors":["00A1F1","7CBB00","FFBB00","F65314"],"path":"/brands/microsoft/"}},{"node":{"id":"356728f60afb405cf9bf1163c7721799","title":"مبین نت","colors":["81c01a","333333"],"path":"/brands/mobinnet/"}},{"node":{"id":"f867afbf773cc147b7ee09e990ee81b1","title":"مجید آنلاین","colors":["ff5951"],"path":"/brands/majid-online/"}},{"node":{"id":"198ea3027538189d7c45ff88d4e41fd2","title":"محک","colors":["9F1936"],"path":"/brands/mahak/"}},{"node":{"id":"21462145c23ddf0dcc7d39317f69d249","title":"مزمز","colors":["ffff2f","ff000a"],"path":"/brands/mazmaz/"}},{"node":{"id":"2ea6c78e8fb5f4a7e4e0e5344fb55584","title":"مستر دیزی","colors":["da251d"],"path":"/brands/mrdizi/"}},{"node":{"id":"b9672e635f856d49c805015644e210cc","title":"منوتو","colors":["f5b81a","1c5dc5","ff4f00","8ec71c","0cb2b7","df1cb7","ce0b33"],"path":"/brands/manoto/"}},{"node":{"id":"449aa091a1763a10a418feee97d4d56a","title":"مهرام","colors":["EE1A30","93BC46"],"path":"/brands/mahram/"}},{"node":{"id":"e4f163de628ee468860079ff619f6520","title":"موزیلا","colors":["c13832","d7d3c8","4d4e53"],"path":"/brands/mozilla/"}},{"node":{"id":"1733ba8b6fe1488d5a3b65957c1fa0a5","title":"مکنزی","colors":["92c83e","01adef"],"path":"/brands/makenzi/"}},{"node":{"id":"e60d0b8f574c32680b1a5b47b8f96186","title":"میاره","colors":["701f83","fbb800"],"path":"/brands/miare/"}},{"node":{"id":"11f483007616151f04dee96c03ad1c8c","title":"میداس","colors":["e1cd76"],"path":"/brands/midas/"}},{"node":{"id":"b6ed888e93a30923ee7f449821f7508b","title":"میل‌چیمپ","colors":["2c9ab7","449a88","febe12","db3a1b","373737"],"path":"/brands/mailchimp/"}},{"node":{"id":"5fe0f955ddec8f5fcee158a3e1be8337","title":"میهن","colors":["100b69","ec1127","a4c4ea"],"path":"/brands/mihan/"}},{"node":{"id":"9d21eae3e2b9a564d06ce026f788eeeb","title":"میهن بلاگ","colors":["52b1e7","000000","ff0000"],"path":"/brands/mihan-blog/"}},{"node":{"id":"87654dac713cbf41bb7a9ade48db6d8c","title":"ناملیک","colors":["3d2442","5538af","ff7300"],"path":"/brands/namelik/"}},{"node":{"id":"f7c783d223c036ee243a854f01613e36","title":"نامی‌نو","colors":["ffde00","ed1c24","004b88"],"path":"/brands/namino/"}},{"node":{"id":"676f2c9699852709431fde6d9b535ed4","title":"نتفلیکس","colors":["e50914"],"path":"/brands/netflix/"}},{"node":{"id":"7158bf55bf20cee05eee96af8dc0b08d","title":"نت‌برگ","colors":["f06305","262626"],"path":"/brands/netbarg/"}},{"node":{"id":"5b5e2d1401071b0585342801dfb4f7a7","title":"نماوا","colors":["1993ff"],"path":"/brands/namava/"}},{"node":{"id":"820e04f0b6d9d7164ee5de91043d57f5","title":"نوین چرم","colors":["f20c0c"],"path":"/brands/novin-charm/"}},{"node":{"id":"24d70fc3bf614c43cce00d3504c3af1d","title":"نیوآ","colors":["00136f"],"path":"/brands/nivea/"}},{"node":{"id":"91409d0fd686b05de05c72af0d4b24cf","title":"هارمونی","colors":["ee2229","030000"],"path":"/brands/harmony/"}},{"node":{"id":"db6df48d0c6f2b9022f1e8a1d4bb17e5","title":"هاکوپیان","colors":["b99a4a","000000"],"path":"/brands/hacoupian/"}},{"node":{"id":"7e85c5196a399c968f707f1f81b7166a","title":"هایدا","colors":["fec70a","d91a22"],"path":"/brands/haida/"}},{"node":{"id":"4679d198083e8dcf8f3e63b38be2e323","title":"های‌وب","colors":["e9002c","939393"],"path":"/brands/hiweb/"}},{"node":{"id":"62a73264edbe38229a571f1b44639af4","title":"هتل بزرگ داریوش","colors":["ffd234","ffc14d","2a0001"],"path":"/brands/hotel-bozorg-dariush/"}},{"node":{"id":"e9b8a5ae843c92b8290a4d020af168e8","title":"همراه اول","colors":["54c5d0","eb7400"],"path":"/brands/hamrah-aval/"}},{"node":{"id":"28835e3cc33b82c98fe5b7b65fe5c6c0","title":"همیار وردپرس","colors":["f44336"],"path":"/brands/hamyarwp/"}},{"node":{"id":"5c72a599e68681a9142cc9606023e23e","title":"هوآوی","colors":["c7000b","ffffff","d3d3d3","7f7f7f","000000"],"path":"/brands/huawei/"}},{"node":{"id":"226a0b56a7b6391179237f989dae5e9f","title":"هواپیمایی ایران‌ایر","colors":["352a82"],"path":"/brands/iranair/"}},{"node":{"id":"03fd6294de39c380c401317b45484d66","title":"هواپیمایی قشم‌ایر","colors":["800000"],"path":"/brands/qeshmair/"}},{"node":{"id":"89dd834db97b787298b0103ffc2091ad","title":"هواپیمایی ماهان","colors":["038b48","fe6603"],"path":"/brands/mahan/"}},{"node":{"id":"4a946e4fb5c32e25f650e2826f8c2053","title":"واتا","colors":["122b94","12dcfc","76ec40"],"path":"/brands/wata/"}},{"node":{"id":"0999b3f79a9971e6bcf50425e769f282","title":"واتس‌اپ","colors":["189D0E"],"path":"/brands/whatsapp/"}},{"node":{"id":"6e3668303821a9faa155cc2795373053","title":"ورزش سه","colors":["4285f4","34a853","fbbc05","7d7e80","ea4336","2e353c"],"path":"/brands/varzesh3/"}},{"node":{"id":"b9d2a7ccd917e9f42aafccd62f45a2fd","title":"ویندوز","colors":["00bcf2"],"path":"/brands/windows/"}},{"node":{"id":"5a721ceb195ab0c13179c9c7ad1563b1","title":"ویندوز فون","colors":["68217a"],"path":"/brands/windows-phone/"}},{"node":{"id":"409a43911edb3eafdac6c1d8d7e80092","title":"پارس‌آنلاین","colors":["36618f","ff0000"],"path":"/brands/parsonline/"}},{"node":{"id":"1d422e3eac1a8990df9e14f925c4b1b4","title":"پارس‌خزر","colors":["ed1e24"],"path":"/brands/parskhazar/"}},{"node":{"id":"bfc18663b584fc5e1adac92b879f2000","title":"پاکشوما","colors":["3e4095","ed3237"],"path":"/brands/pakshooma/"}},{"node":{"id":"47e60b988307cb00c76bd68c1b7a7591","title":"پدرخوب","colors":["f6f700","f20000","be0000"],"path":"/brands/pedarekhoob/"}},{"node":{"id":"d4bd9532edde51937214780c24520aa5","title":"پذیرش24","colors":["3f4079","5ebea0"],"path":"/brands/paziresh24/"}},{"node":{"id":"646aced9d46477b84c7fef9e367168af","title":"پریل","colors":["e4000f","ffee00"],"path":"/brands/pril/"}},{"node":{"id":"346ee29dd012efb1ee01c121104317d1","title":"پلی‌استیشن","colors":["003087"],"path":"/brands/playstation/"}},{"node":{"id":"7135b156f733ded293147ae4ceac79d4","title":"پونه","colors":["005baa","8dc73f","037e3b"],"path":"/brands/pooneh/"}},{"node":{"id":"e4cef6818487dbf0fad2d7950765f31d","title":"پونیشا","colors":["007f48","101828"],"path":"/brands/ponisha/"}},{"node":{"id":"4d9db5786cc5d5035742c9cf27c049c5","title":"پپسی","colors":["005992","ed1a38"],"path":"/brands/pepsi/"}},{"node":{"id":"28a54fbd534a9423c62f07609510dcf3","title":"پگاه","colors":["1d4789"],"path":"/brands/pegah/"}},{"node":{"id":"5cb9b8c082f728a5b4ef3302bcc57d2f","title":"پینترست","colors":["bd081c"],"path":"/brands/pinterest/"}}]}},"context":{}}