{"hash":"c322d553dc461de1dc032ff8020047fef104eba2","data":{"brands":{"totalCount":206,"pageInfo":{"totalPages":3,"currentPage":3},"edges":[{"node":{"id":"35be45b44504204fe2c53f9a756f9398","title":"گوگل","colors":["4285F4","EA4335","FBBC05","34A853"],"path":"/brands/google/"}},{"node":{"id":"731ca21852259e056c71235d5f8e5896","title":"گوگل پلی","colors":["444444","689f38","ed3b3b","ef6c00","039be5","536dfe","658092"],"path":"/brands/google-play/"}},{"node":{"id":"69f7724dbe8475e37704ac64edbe5e16","title":"گوگل+","colors":["dc4e41"],"path":"/brands/google-plus/"}},{"node":{"id":"cda39be6e54793e9aa1395921c57652c","title":"گیت‌هاب","colors":["4183c4","999999","666666","333333","6cc644","bd2c00","ff9933"],"path":"/brands/github/"}},{"node":{"id":"c83668b7cbeb15614d77c6a4bda0e5ba","title":"یوتیوب","colors":["cd201f"],"path":"/brands/youtube/"}},{"node":{"id":"26d258cc2665662a4daa2022be2baf86","title":"یک و یک","colors":["ed1b24"],"path":"/brands/1and1/"}}]}},"context":{}}